{
    "name": "Kube framework",
    "description": "Kube framework theme for solidshops",
    "license": "BSD-3-Clause",
    "keywords": [
        "facebook",
        "social"
    ],
    "homepage": "https://www.solidshops.com/",
    "authors": [
        {
            "name": "SolidShops",
            "email": "support@solidshops.com",
            "homepage": "https://www.solidshops.com",
            "Company": "SolidShops"
        }
    ],
    "meta": {
        "template": {
            "cart": {
                "description": "Your shopping cart"
            },
			"category": {
                "description": "Category listing"
            },
            "index": {
                "description": "This is the homepage of your store "
            },
            "page": {
                "description": "Template to display page contents"
            },
			"product": {
                "description": "Template to display a single product"
            },
			"search": {
                "description": "Template to display search results"
            }
        }
    }
}